{
  "name": "My plugin",
  "description": "Atlassian Connect app",
  "key": "com.example.myapp",
  "baseUrl": "https://d9798500.ngrok.io",
  "vendor": {
    "name": "Example, Inc.",
    "url": "http://example.com"
  },
  "authentication": {
    "type": "none"
  },
  "apiVersion": 1,
  "modules": {
    "generalPages": [
      {
        "url": "plugin",
        "key": "hello-world",
        "location": "system.top.navigation.bar",
        "name": {
          "value": "In development"
        }
      }
    ]
  }
}